7253fb387a1c82859a99d5959d6885d897b2fe80c3d4dc4933
93db37e0ae119bcd9fe9df1aafe465a755e8f1932e2cabf473
0f3109ae7b61cd8ca78f798a8b966664480ac55319d83f6e86
63c2dd30b356d0b89235e349420c29a8955883a18c29b6b505
7db95dc1acecf0066eba4324082c3561fa981dd9add9a29df7
d6c282972a6cf96abffe4a9ffc379af926158dfd1cea5101b6
d75c946b7347bddb98934b5076330838441d61cbd8468a1096
8abd917caa5057717dc2c6326f90d6327bb7fd278fb330f5d8
53dec3e6bc241bf4998a96d0ecee83b0107fae735d842f497c
269c9271c5ea84efcd1924299c7129671e838160d01abdb587
cf1b203493294e242ee0799ff8a6546fd61cf46f913a3d0532
1a53f0a300d2d611e5e14a0ad175faaa180c0398e774d63b6f
5254bd5ee31fd84a121e413c73f0113671fae4a0df6c5a65bd
e0e2e38ce7c32ebe0cea3c0400be7a4ba3c1e97da3b24248bf
1caac8f16c3639d47075561ebfbd11d4dbe4075bcae2841ea3
72a954099979fef7fde757b33287c939b08863a54788fc6804
bdc9969d535b40d566c4460c8a5fd79c040c880915cb50ac91
86a876a4fcf75f6a2b5dafe606fe928aba1ef664b40e7b175c
f9d02cde3bea3074c094a7665a6f346a04a98b8b8c91024b0d
5bd258d92c18bc552ce1d00ab27738bc960899ada397c05949
e40e3cebfe7efc0b0bb7db33e3295faf84a2e2fa22e25b3059
19c1ae0b529f4a9c21514f2cc72e5d6caa2806cfb544811795
bb95864fa50f9ce4977961d7fe20c1818011d2027db99c31df
be50211f53ee4fdffabcbf7b4f6bade8928094a6146639878e
d43564af08d8cdc352c434829177517d3645d9d4442f4e42e5
c2df44332aa621b7aa2de2fb50d059fa109bb29a5d582322f2
77ff48f39981102025609ae4d2b628662bffa28a8c47271355
3b96f0896ec23b4cab1aaf1238d230bc187df6ab7424605109
3a87e56e7ee9d23775be1d3d13d55cb78b5b716b86658fcfbd
7a1426b8dde627e9ef049e8bbffef3251f9da2eff0ed3760f5
b69bb0faddc9deabbfe8dd53624c0d8e9e9417fac0250e4b48
c080754a61970e3d49f72c7add1bed8ae059bd60936b13d33b
6e8f362901284ed83b15f1a9b56ee1a26793e9eec871de2ac4
abea71bf55b921f36869be3a58b3caf48266e520e31beaac89
23d221d2eba8bbc36ca9806b08f4bd7271c32936ddc3b26a9c
4cb6b9f0499c3e61d7aba5b56d4aada92c188586e41e89120f
96326e6f306307c37b6450eedf88277959eb5c17354236885c
8868c8412ea73bdd5109726672c41cc99114cecedbbf3e115b
cf5a5bcfb0b08be675284865a62b68138fa1357c6e1616b6d4
61f3c307bdc9b228ddc6ee6932796dd880f14f03feed04d878
