755adaa5554816a13bed1315ffc0eff93dd1cceadf88b3f024
a71fef7ba7a3d4de14ea91ad06bee1720ead01c802415fa907
2529f71804f9a78b1b651d9e02e085b24bb42915b9959326f8
6998b86c08398e26ca7b496366e9b626b68c084dcd6b743440
9dac87f520d17579a6292bdbb3e8084aba6c5a2d07d42857be
0cba2f4106d0704e9bb39b6640e0e3d8401e3c7d24d41ab446
cbec690879df51f074ffaa79da1b0d72c0d914a32edab94470
54ce3e5c7221dbe7639f862fc8de3a7d20e41dac4d731100a2
0d1ca091a67b437707da9f05d87f426686bfe747782866abea
c80fd9d883506f89346908a1698cfcd55ba895014f2a2169cc
345375381f5ed2d28e89f0d4afd693b7b37233ec34cdfe9def
f2bbb506c3576720dfe5ba138eca9089e6800b6c02ddfabbb5
7cd00272aed63abc4d686714a2de78f79c3db6b64eb033811b
6cd687441586d53fa5d30e8ea954ef980915b01443af7f51b4
e73e5736f24138f8e6221489899149490018c633c7db21f990
6034d7c79c38944af06ffa08762b294089b79f90aee683266f
93e4392f87ee4f1a72904ea4618fa9dc96303ca0314354a636
c128a491c917d7f861c7c1cc7a9af159644f8bfd122119c53a
edcf8b86cdb59f5fd99248d3311915d7c5b0c8d40c5d12e1a2
73bd76ced8e94316039e6bb9a16fe928c516bf814e60a5cc15
d11981eb30273bb4bdf0579bb9d44f7d825723064bfbf3c2ee
b2dd2c45a162646c0ec95f06ade08f5e85a9aba39e580202a0
89c3399dbab3f40ff16d73096fa0f88b300313791643eee698
763ab9f76a6fdb61dee832ae7f0d84e00126bc43b11c7f971d
0447b086f8b2a580b7c24e9b6a12a1a698019c5ccc2a6924ee
d8fe39ebf01e4bd499dc3b69bf044452639fc56f59481e58d2
53a51ce2082ad5cab3a45012f2bdc922fda8525e95be84cc77
ca72e58bc6bfe2356665204623e49127c05cb03b058ccc5304
249121b991a7b5fea743b3604b9cb179385bfaf00e0e7a810b
2cefbd7fd358eda837e158c01113b8eee2cd2a2acf2c9021e6
97f74d0373a196117ea4a21ba7bf19987821712adb32735d4a
1bc2931fe8485a5d6841ef22f4936fc0633bcff76064a19035
aea5102780314b342ea8c0448c3f6a272906080f9dd1c4a21f
2502130bb656093e1d1f43e6a5fbdaabde214abffd19ce14cf
fed709e865eda891772dfaeeacff7d047399c5dfb15b10402e
e6c731e8843515880d5b8e58e0d0167244748e6a1b3cf4d4d2
60466402146f04f5ed69ca7e5bab6c5537eaaaa8a6ef66ecd6
b47a0ba2b75086ac1e005e75355e1e43ed8e81c21ad0133b10
7284478de088a2c90ac68865fe11c65efedf228b5bb693211a
69433dd19966dd80ff1eac8ad9bd4ce0659242c328358901ab
